{
    "hot_reload_configuration": true,
    "jwt_privatekey": "sk.der",
    "jwt_publickey": "pk.der",
    "jwt_issuer": "irma_api_server",
    "enable_verification": true,
    "enable_issuing": true,
    "enable_signing": true,
    "reject_unfloored_validity_timestamps": true,
    "allow_unsigned_issue_requests": true,
    "allow_unsigned_verification_requests": true,
    "allow_unsigned_signature_requests": true,
    "max_jwt_age": 60,
    "token_response_timeout": 600,
    "token_get_timeout": 120,

    "client_get_timeout": 120,
    "authorized_idps": {
		"testip": [ "*" ]   
    },
    "authorized_sps": {
		"testsp": [ "*" ]
    },

    "authorized_sigclients": {
		"testsp": [ "*" ]
    },
    "events_webhook_uri": null,
    "events_webhook_authorizationToken": null,
    "client_ip_header": null,
    "schemeManager_update_uri": null
}
